"(* Coefficients for function approximations *)"
{Sin[2*Pi*#1] & , 1, 0.00903261403889669980609097907908, 
 x*(6.2127512751533636810266712809 - 
     35.9821077009432076840165631548*Power(x,2))}
{Sin[2*Pi*#1] & , 2, 0.00016059094884315593746160492701, 
 x*(6.2817485982123489090797792531 + 
     Power(x,2)*(-41.1333927371182692572531786826 + 
        74.171087783146379071588053574*Power(x,2)))}
{Sin[2*Pi*#1] & , 3, 1.58016215200483927797284866108e-6, 
 x*(6.2831695125493457846550448487 + 
     Power(x,2)*(-41.3379839486638336886792146778 + 
        Power(x,2)*(81.371978532544677342208302432 - 
           71.315978441592194407247888986*Power(x,2))))}
{Sin[2*Pi*#1] & , 4, 9.87410297844129295403342670375e-9, 
 x*(6.2831851989440238363581945604 + 
     Power(x,2)*(-41.3416646547590947908779056914 + 
        Power(x,2)*(81.601631640211881069182778798 + 
           Power(x,2)*(-76.56466773344087533597673461 + 
              39.6528001753697560443995227219*Power(x,2)))))}
{Sin[2*Pi*#1] & , 5, 4.26618737961738769059953122132e-11, 
 x*(6.2831853066735779842273116142 + 
     Power(x,2)*(-41.3417019972737672877121289508 + 
        Power(x,2)*(81.605216163490788105307523631 + 
           Power(x,2)*(-76.703938151594961900207474452 + 
              Power(x,2)*(42.0046878003529165880704923157 - 
                 14.3664598125678307183280614725*Power(x,2))))))}
{Sin[2*Pi*#1] & , 6, 1.35052419895760612440936163371e-13, 
 x*(6.2831853071778704147024863797 + 
     Power(x,2)*(-41.3417022393099629778945111838 + 
        Power(x,2)*(81.605249077126372940457689074 + 
           Power(x,2)*(-76.705843817504942181869384713 + 
              Power(x,2)*(42.0580411171712349980374012262 + 
                 Power(x,2)*(-15.0803528951943294831983114707 + 
                    3.66062453812577851620993390211*Power(x,2)))))))}
{Sin[2*Pi*#1] & , 7, 3.26719122648735022071819189393e-16, 
 x*(6.2831853071795820633739361524 + 
     Power(x,2)*(-41.3417022403961809120954462054 + 
        Power(x,2)*(81.605249275232749167568361308 + 
           Power(x,2)*(-76.7058596644331477302937649 + 
              Power(x,2)*(42.0586890157803265046507872249 + 
                 Power(x,2)*(-15.094487453794744933796374286 + 
                    Power(x,2)*(3.81717632738725732486907220483 - 
                       0.69174075052614465002205991763*Power(x,2))))))))}
{Sin[2*Pi*#1] & , 8, 6.23674794993677351325343779135e-19, 
 x*(6.2831853071795864680224671155 + 
     Power(x,2)*(-41.3417022403997512576544306479 + 
        Power(x,2)*(81.605249276072410674251626791 + 
           Power(x,2)*(-76.705859752708750470270935774 + 
              Power(x,2)*(42.0586939194912275451623859862 + 
                 Power(x,2)*(-15.0946415041050550042911122547 + 
                    Power(x,2)*(3.81992525864144427125360186953 + 
                       Power(x,2)*
                        (-0.71770901464828231655437134119 + 
                          0.100807907479216992437490038615*Power(x,2)))))))))}
{Sin[2*Pi*#1] & , 9, 9.63328103917129602481419925292e-22, 
 x*(6.2831853071795864769108260541 + 
     Power(x,2)*(-41.3417022403997602162270716441 + 
        Power(x,2)*(81.60524927607504781510556174 + 
           Power(x,2)*(-76.705859753060334195575290001 + 
              Power(x,2)*(42.0586939448027319584655820258 + 
                 Power(x,2)*(-15.0946425716838802935950674806 + 
                    Power(x,2)*(3.81995241075943193402296409863 + 
                       Power(x,2)*
                        (-0.71811858290037345979692233069 + 
                          Power(x,2)*
                           (0.104180486171839070243788076901 - 
                           0.0116746637138461589052825259926*Power(x,2)))))))\
)))}
{Sin[2*Pi*#1] & , 10, 1.22868076732419204751082663166e-24, 
 x*(6.283185307179586476925267448 + 
     Power(x,2)*(-41.3417022403997602339400833283 + 
        Power(x,2)*(81.605249276075054191154490886 + 
           Power(x,2)*(-76.705859753061383406514648697 + 
              Power(x,2)*(42.0586939448973846696473779636 + 
                 Power(x,2)*(-15.0946425768049421598822141789 + 
                    Power(x,2)*(3.81995258407040957835268127083 + 
                       Power(x,2)*
                        (-0.71812227983282465329190654751 + 
                          Power(x,2)*
                           (0.104228758949699065140745241638 + 
                           Power(x,2)*
                           (-0.0120269351963757602107787554439 + 
                           0.00110031935250749900724153278748*Power(x,2))))))\
)))))}
{Cos[2*Pi*#1] & , 1, 0.0504518457123506773111386194188, 
 0.98016085437229198280935035424 - 16.4898032013542825619278235786*Power(x,2)}
{Cos[2*Pi*#1] & , 2, 0.00131251038910878067491502401754, 
 0.99957946586703103708288396945 + 
   Power(x,2)*(-19.5967616435895228069610500387 + 
      57.99184569508426727093675059*Power(x,2))}
{Cos[2*Pi*#1] & , 3, 0.0000169772140729548966092647935971, 
 0.99999528195969792272567873556 + 
   Power(x,2)*(-19.7364809840938003502669448481 + 
      Power(x,2)*(64.697886912698329308457244775 - 
         78.677272250925894007869684715*Power(x,2)))}
{Cos[2*Pi*#1] & , 4, 1.31399482973324272711435156621e-7, 
 0.99999996726383273542938435205 + 
   Power(x,2)*(-19.7391799337962970479952430123 + 
      Power(x,2)*(64.935379269908373071852496401 + 
         Power(x,2)*(-85.263169908889272071951069608 + 
            56.445391069291546024896934066*Power(x,2))))}
{Cos[2*Pi*#1] & , 5, 6.76921977770165908599635624668e-10, 
 0.9999999998456701707702258525 + 
   Power(x,2)*(-19.7392086093151470892757539327 + 
      Power(x,2)*(64.939355387769799881918538687 + 
         Power(x,2)*(-85.454008127664189317406682418 + 
            Power(x,2)*(60.152773740405849388006849711 - 
               25.0430953696665464043549181552*Power(x,2)))))}
{Cos[2*Pi*#1] & , 6, 2.48829316968775302617501489181e-12, 
 0.9999999999994734649908126782 + 
   Power(x,2)*(-19.7392088012932785269032733905 + 
      Power(x,2)*(64.939393781592629636072559592 + 
         Power(x,2)*(-85.456792744602033873769040872 + 
            Power(x,2)*(60.243464775090741079798043486 + 
               Power(x,2)*(-26.3972903959942738292064761591 + 
                  7.5499508292817681462964543424*Power(x,2))))))}
{Cos[2*Pi*#1] & , 7, 6.8548687264893116091914056915e-15, 
 0.99999999999999863970708884817 + 
   Power(x,2)*(-19.7392088021757549552319405358 + 
      Power(x,2)*(64.939394021616994864864824122 + 
         Power(x,2)*(-85.456817065282846045587103351 + 
            Power(x,2)*(60.244632068284243787202573779 + 
               Power(x,2)*(-26.4259253961609784020478314375 + 
                  Power(x,2)*(7.8970093200381238908703916287 - 
                     1.64741764516300853305603274719*Power(x,2)))))))}
{Cos[2*Pi*#1] & , 8, 1.46791268865094997712147561794e-17, 
 0.99999999999999999724650488814 + 
   Power(x,2)*(-19.7392088021787096990992768032 + 
      Power(x,2)*(64.939394022664912712776122911 + 
         Power(x,2)*(-85.456817206113170179307950597 + 
            Power(x,2)*(60.24464132207891922763883308 + 
               Power(x,2)*(-26.426254390622276180570479437 + 
                  Power(x,2)*(7.9034689775776775116910217077 + 
                     Power(x,2)*
                      (-1.7132857350438188140105077261 + 
                        0.272228719380816673731890864128*Power(x,2))))))))}
{Cos[2*Pi*#1] & , 9, 2.5135399202855517722205941941e-20, 
 0.9999999999999999999955151136 + 
   Power(x,2)*(-19.739208802178717222590577136 + 
      Power(x,2)*(64.939394022668283164993884498 + 
         Power(x,2)*(-85.456817206691950895580413978 + 
            Power(x,2)*(60.244641371684673221621490635 + 
               Power(x,2)*(-26.4262567714892743316375310569 + 
                  Power(x,2)*(7.9035359243164069688688843706 + 
                     Power(x,2)*
                      (-1.71438032198995334620416366498 + 
                        Power(x,2)*
                         (0.281860168155473253461036608013 - 
                           0.035248973544218501784328836105*Power(x,2))))))))\
)}
{Cos[2*Pi*#1] & , 10, 3.51728309541052927463682500279e-23, 
 0.99999999999999999999999399493 + 
   Power(x,2)*(-19.7392088021787172376446592322 + 
      Power(x,2)*(64.939394022668291474741057568 + 
         Power(x,2)*(-85.456817206693723530974212629 + 
            Power(x,2)*(60.244641371876102723730919228 + 
               Power(x,2)*(-26.4262567833313550310661198298 + 
                  Power(x,2)*(7.9035363692512638890570451027 + 
                     Power(x,2)*
                      (-1.71439064742986978217145812714 + 
                        Power(x,2)*
                         (0.282004710643867844758724316103 + 
                           Power(x,2)*
                           (-0.0363674175789343233130225120336 + 
                           0.00367285150419855985096030559397*Power(x,2))))))\
))))}
{Tan, 1, 0.00865789672469841971643784500102, 
 x*(0.98276163276000081709189717695 + 
     0.453034304734966674787778454998*Power(x,2))}
{Tan, 2, 0.000727287344947989143195781099361, 
 x*(1.00170782693809277322499197661 + 
     Power(x,2)*(0.309714707633373425364941274161 + 
        0.209085973980110117475745338148*Power(x,2)))}
{Tan, 3, 0.0000588313228454222213985064394154, 
 x*(0.99984352018884191788350457605 + 
     Power(x,2)*(0.336912691028099272781190505098 + 
        Power(x,2)*(0.1120939087671747709691505451 + 
           0.097327839824133081823526445792*Power(x,2))))}
{Tan, 4, 4.64860154425979819139416017544e-6, 
 x*(1.00001366826844344661072356372 + 
     Power(x,2)*(0.332867534710023334424515907689 + 
        Power(x,2)*(0.137666618535745792400702308836 + 
           Power(x,2)*(0.038109593498345764474134861731 + 
              0.0453292771686546484054901574993*Power(x,2)))))}
{Tan, 5, 3.61512355134620438222691533819e-7, 
 x*(0.99999884385586990080507895182 + 
     Power(x,2)*(0.333388185396860351284712200106 + 
        Power(x,2)*(0.132602841847544279780077687647 + 
           Power(x,2)*(0.058043952445852883530914933984 + 
              Power(x,2)*(0.0112209660185495965851419521451 + 
                 0.021110264077511391260691672429*Power(x,2))))))}
{Tan, 6, 2.77920474041558396428637703095e-8, 
 x*(1.00000009556273468135417118796 + 
     Power(x,2)*(0.333327315753471436605865073739 + 
        Power(x,2)*(0.133441522356925595137179504578 + 
           Power(x,2)*(0.053123922868682170009977432093 + 
              Power(x,2)*(0.0251776622626741619881108963552 + 
                 Power(x,2)*(0.00218880461852553345512179992885 + 
                    0.0098305292317522568374360292499*Power(x,2)))))))}
{Tan, 7, 2.11797605279377177827499353289e-9, 
 x*(0.99999999223717873060264384543 + 
     Power(x,2)*(0.333333959458574669298100907978 + 
        Power(x,2)*(0.133318752404792647205904560529 + 
           Power(x,2)*(0.054118959290131843911086247136 + 
              Power(x,2)*(0.0210557267838534343805412894378 + 
                 Power(x,2)*(0.0113000270079453406081472747683 + 
                    Power(x,2)*(-0.000394220499069242781266064162683 + 
                       0.00457760448986157951012801821513*Power(x,2))))))))}
{Tan, 8, 3.09721613412743418282306601662e-11, 
 x*(1.00000000062210561249435075321 + 
     Power(x,2)*(0.333333270808614719432647581412 + 
        Power(x,2)*(0.133335161807503667236847314923 + 
           Power(x,2)*(0.053944164100908176931896775957 + 
              Power(x,2)*(0.022039542819552045318252062962 + 
                 Power(x,2)*(0.0081685309396240565867589044779 + 
                    Power(x,2)*(0.0052675651980750269646549966795 + 
                       Power(x,2)*
                        (-0.00084156485031760336132057845756 + 
                          0.00213149666315483255036929194741*Power(x,2)))))))\
))}
{Tan, 9, 1.20651925373005911353044383782e-11, 
 x*(0.99999999995068397598350847883 + 
     Power(x,2)*(0.33333333937524744416598278027 + 
        Power(x,2)*(0.133333116740301110697243867692 + 
           Power(x,2)*(0.053971789163785711309514560631 + 
              Power(x,2)*(0.0218380346189587298613761981662 + 
                 Power(x,2)*(0.009029673337800523770790144617 + 
                    Power(x,2)*(0.00304845439486132768140761390911 + 
                       Power(x,2)*
                        (0.00255001319135860422871139037258 + 
                          Power(x,2)*
                           (-0.00069818692939034571926663850819 + 
                           0.00099247692674222979097236543972*Power(x,2))))))\
))))}
{Tan, 10, 9.03930851335382288093836895678e-13, 
 x*(1.00000000000387473495551507989 + 
     Power(x,2)*(0.3333333327649692297103886644 + 
        Power(x,2)*(0.13333335783031676661849390842 + 
           Power(x,2)*(0.053967769491489621443178653684 + 
              Power(x,2)*(0.0218747764800937940219873684519 + 
                 Power(x,2)*(0.0088282599333400570051233342972 + 
                    Power(x,2)*(0.0037390990808727246808787016688 + 
                       Power(x,2)*
                        (0.001057320616546013704047347172 + 
                          Power(x,2)*
                           (0.00127665074039994078941567735708 + 
                           Power(x,2)*
                           (-0.000467704612436019245108925005593 + 
                           0.000462113198178043193634186609488*Power(x,2)))))\
))))))}
{Tan, 11, 6.74609485559254723412429232056e-14, 
 x*(0.99999999999969782009029088558 + 
     Power(x,2)*(0.333333333385615378877094624689 + 
        Power(x,2)*(0.133333330666872895405193642892 + 
           Power(x,2)*(0.053968316738052619068415253506 + 
              Power(x,2)*(0.0218686655231907483773756355705 + 
                 Power(x,2)*(0.0088698639736091735012464209791 + 
                    Power(x,2)*(0.00355753196483481438901103939745 + 
                       Power(x,2)*
                        (0.00157587775676241721137216387132 + 
                          Power(x,2)*
                           (0.000312468115466742533355776047716 + 
                           Power(x,2)*
                           (0.00065649981936187720331959459656 + 
                           Power(x,2)*
                           (-0.000284166176654588374166989541404 + 
                           0.000215164401446711705157425907504*Power(x,2)))))\
)))))))}
{Tan, 12, 2.05678882461039981551145111688e-15, 
 x*(1.00000000000002341811475461652 + 
     Power(x,2)*(0.333333333328614368392649622682 + 
        Power(x,2)*(0.133333333614348873716342833875 + 
           Power(x,2)*(0.05396824620873069073868662445 + 
              Power(x,2)*(0.0218696087164553283199313329714 + 
                 Power(x,2)*(0.0088620805070323247973491155907 + 
                    Power(x,2)*(0.00359942629557810282913181945157 + 
                       Power(x,2)*
                        (0.00142453597429305605082956068534 + 
                          Power(x,2)*
                           (0.00068225442232880309114265180873 + 
                           Power(x,2)*
                           (0.000053579128376202560996161677107 + 
                           Power(x,2)*
                           (0.000344111583747585554279748072893 + 
                           Power(x,2)*
                           (-0.00016322245541386110929155394436 + 
                           0.000100181583113796398405570799619*Power(x,2)))))\
))))))))}
{Tan, 13, 3.72181489024062350917693256191e-16, 
 x*(0.99999999999999819495010830294 + 
     Power(x,2)*(0.333333333333752399705390850688 + 
        Power(x,2)*(0.133333333304523657475550942049 + 
           Power(x,2)*(0.053968254889958746335720095756 + 
              Power(x,2)*(0.0218694719045847458702767976548 + 
                 Power(x,2)*(0.0088634232175644494955148154033 + 
                    Power(x,2)*(0.00359072027967820391097486821314 + 
                       Power(x,2)*
                        (0.00146310948091903832396899571259 + 
                          Power(x,2)*
                           (0.0005636374088633115844902556932 + 
                           Power(x,2)*
                           (0.000306573265930229579290613904296 + 
                           Power(x,2)*
                           (-0.000023023658545133380033128158365 + 
                           Power(x,2)*
                           (0.000182557609162766735372249015956 + 
                           Power(x,2)*
                           (-0.000090389028843090636187866091135 + 
                           0.0000466446394790674830472521923831*Power(x,2))))\
))))))))))}
{Tan, 14, 2.75349572825658604825757674483e-17, 
 x*(1.0000000000000001384804550038 + 
     Power(x,2)*(0.333333333333296638958010528014 + 
        Power(x,2)*(0.133333333336217239563432681915 + 
           Power(x,2)*(0.053968253862466774107406814742 + 
              Power(x,2)*(0.0218694907344607074955983452666 + 
                 Power(x,2)*(0.0088632067830647473702621206899 + 
                    Power(x,2)*(0.00359238000172311344261941119883 + 
                       Power(x,2)*
                        (0.00145429530701478356989559260266 + 
                          Power(x,2)*
                           (0.00059672996908434696008167588556 + 
                           Power(x,2)*
                           (0.000218110508619552225947668179694 + 
                           Power(x,2)*
                           (0.00014427188261346134005300862354 + 
                           Power(x,2)*
                           (-0.0000361032828812781375170926173243 + 
                           Power(x,2)*
                           (0.000097466545577905068093889083479 + 
                           Power(x,2)*
                           (-0.0000487857630714232115273329831128 + 
                           0.0000217176423454279321926713943424*Power(x,2))))\
)))))))))))}
{Tan, 15, 2.03255526474217101880980313263e-18, 
 x*(0.99999999999999998941958175917 + 
     Power(x,2)*(0.333333333333336506987162663085 + 
        Power(x,2)*(0.13333333333305060456390401692 + 
           Power(x,2)*(0.053968253980037973350833306076 + 
              Power(x,2)*(0.0218694882569162410314458138756 + 
                 Power(x,2)*(0.0088632397146370392892045164198 + 
                    Power(x,2)*(0.00359208571987572743129221549147 + 
                       Power(x,2)*
                        (0.00145613525841119771186244774873 + 
                          Power(x,2)*
                           (0.00058848417587546628340876795107 + 
                           Power(x,2)*
                           (0.000244921174416378545658519112718 + 
                           Power(x,2)*
                           (0.000080945179350337544640164432015 + 
                           Power(x,2)*
                           (0.000071416747811786226719148235125 + 
                           Power(x,2)*
                           (-0.0000303443716850206926483624256602 + 
                           Power(x,2)*
                           (0.000052147447996205149471267169049 + 
                           Power(x,2)*
                           (-0.0000258341845464590184852999673513 + 
                           0.0000101116314124431465533513303211*Power(x,2))))\
))))))))))))}
{Tan, 16, 1.497269550785374453361703429e-19, 
 x*(1.00000000000000000080545440531 + 
     Power(x,2)*(0.333333333333333061819969588539 + 
        Power(x,2)*(0.133333333333360546608402813429 + 
           Power(x,2)*(0.053968253966975330663320508102 + 
              Power(x,2)*(0.0218694885704129313400090172173 + 
                 Power(x,2)*(0.0088632349470659734732804583412 + 
                    Power(x,2)*(0.00359213476377290660043846125335 + 
                       Power(x,2)*
                        (0.00145577940532858635104119122799 + 
                          Power(x,2)*
                           (0.00059035463237362827564210479006 + 
                           Power(x,2)*
                           (0.00023768700188769741863914950393 + 
                           Power(x,2)*
                           (0.000101661883918277200504201461016 + 
                           Power(x,2)*
                           (0.0000276150155850017094446656708628 + 
                           Power(x,2)*
                           (0.0000371072016324278088588365296147 + 
                           Power(x,2)*
                           (-0.0000213672473994463985915984748447 + 
                           Power(x,2)*
                           (0.0000278784442755007979677418399322 + 
                           Power(x,2)*
                           (-0.0000134807178604122488129658637448 + 
                           4.707906297009405091797311521e-6*Power(x,2))))))))\
)))))))))}
{Tan, 17, 1.10111072464839189138459458962e-20, 
 x*(0.99999999999999999993888089868 + 
     Power(x,2)*(0.333333333333333356338114923812 + 
        Power(x,2)*(0.13333333333333075637512984116 + 
           Power(x,2)*(0.053968253968389518120128449268 + 
              Power(x,2)*(0.0218694885320794532281685732237 + 
                 Power(x,2)*(0.0088632356079856102185300855414 + 
                    Power(x,2)*(0.00359212701718580565779895250498 + 
                       Power(x,2)*
                        (0.00145584386485710454322651428444 + 
                          Power(x,2)*
                           (0.00058996280421702833462505204544 + 
                           Power(x,2)*
                           (0.000239458722169782086618761938049 + 
                           Power(x,2)*
                           (0.000095644526833020116031613612107 + 
                           Power(x,2)*
                           (0.0000429978159268162930652873168731 + 
                           Power(x,2)*
                           (7.6836798489002476727712948113e-6 + 
                           Power(x,2)*
                           (0.0000200770343733839612269351332149 + 
                           Power(x,2)*
                           (-0.0000138196651724994332755677753117 + 
                           Power(x,2)*
                           (0.0000148642038594890923558428470989 + 
                           Power(x,2)*
                           (-6.95276021205618507551035809e-6 + 
                           2.19196055949531344908968113622e-6*Power(x,2))))))\
))))))))))))}
{Tan, 18, 8.0838810257891478251594699266e-22, 
 x*(1.00000000000000000000462442338 + 
     Power(x,2)*(0.333333333333333331401003075006 + 
        Power(x,2)*(0.133333333333333573825285174752 + 
           Power(x,2)*(0.053968253968239893626458419616 + 
              Power(x,2)*(0.0218694885366270429173992981528 + 
                 Power(x,2)*(0.0088632355197951146345065231834 + 
                    Power(x,2)*(0.0035921281846509337914315627705 + 
                       Power(x,2)*
                        (0.00145583283465822055075672632622 + 
                          Power(x,2)*
                           (0.00059003945035756109660669802059 + 
                           Power(x,2)*
                           (0.000239059114173240307761086596703 + 
                           Power(x,2)*
                           (0.0000972269022936363251205584468 + 
                           Power(x,2)*
                           (0.0000382125253568063345266797436682 + 
                           Power(x,2)*
                           (0.0000187242685169251828386313019321 + 
                           Power(x,2)*
                           (8.0381753361739910836705300928e-7 + 
                           Power(x,2)*
                           (0.0000111889030153072442958613467657 + 
                           Power(x,2)*
                           (-8.4998371769582463109175926601e-6 + 
                           Power(x,2)*
                           (7.8950248905523848740210240825e-6 + 
                           Power(x,2)*
                           (-3.55198533465726113231324819101e-6 + 
                           1.02055463238432718280651846561e-6*Power(x,2))))))\
)))))))))))))}
{Tan, 19, 5.92594532388035369111499333425e-23, 
 x*(0.99999999999999999999965101424 + 
     Power(x,2)*(0.333333333333333333494381569307 + 
        Power(x,2)*(0.133333333333333311182131279198 + 
           Power(x,2)*(0.05396825396825540269051752102 + 
              Power(x,2)*(0.0218694885361018990566584965274 + 
                 Power(x,2)*(0.0088632355311708715674911290368 + 
                    Power(x,2)*(0.00359212801585527493282525804265 + 
                       Power(x,2)*
                        (0.00145583463008853919762854997033 + 
                          Power(x,2)*
                           (0.00059002532657772523316748832168 + 
                           Power(x,2)*
                           (0.000239143060118800182752589287283 + 
                           Power(x,2)*
                           (0.000096844597453325597260049245167 + 
                           Power(x,2)*
                           (0.0000395572673675980420585389487713 + 
                           Power(x,2)*
                           (0.0000150622072489016803579968596654 + 
                           Power(x,2)*
                           (8.4987929409128239273716486908e-6 + 
                           Power(x,2)*
                           (-1.16159881197990888900917187412e-6 + 
                           Power(x,2)*
                           (6.3536386430518878012434993561e-6 + 
                           Power(x,2)*
                           (-5.0555741271416578710706159493e-6 + 
                           Power(x,2)*
                           (4.17471999604749180509821682441e-6 + 
                           Power(x,2)*
                           (-1.80035207043059583630640571674e-6 + 
                           4.75158586025275819996351395749e-7*Power(x,2))))))\
))))))))))))))}
{Tan, 20, 4.33844320514373703297582272106e-24, 
 x*(1.0000000000000000000000262745 + 
     Power(x,2)*(0.333333333333333333320005377735 + 
        Power(x,2)*(0.133333333333333335349575651101 + 
           Power(x,2)*(0.053968253968253824500765168619 + 
              Power(x,2)*(0.0218694885361610932547314200947 + 
                 Power(x,2)*(0.0088632355297472845103165345554 + 
                    Power(x,2)*(0.00359212803937509395372751426277 + 
                       Power(x,2)*
                        (0.0014558343505042140684537210392 + 
                          Power(x,2)*
                           (0.0005900277958531524001045575342 + 
                           Power(x,2)*
                           (0.000239126487768818969022153021669 + 
                           Power(x,2)*
                           (0.000096930432517218357681586259288 + 
                           Power(x,2)*
                           (0.000039210800129079483529265307205 + 
                           Power(x,2)*
                           (0.000016157358733031935362704533668 + 
                           Power(x,2)*
                           (5.7879192801265370763998360812e-6 + 
                           Power(x,2)*
                           (4.06606658561020529208663720804e-6 + 
                           Power(x,2)*
                           (-1.40958029470778242593178710892e-6 + 
                           Power(x,2)*
                           (3.64360313519290754080825313457e-6 + 
                           Power(x,2)*
                           (-2.9351207390050043108649647876e-6 + 
                           Power(x,2)*
                           (2.19702414902662470008139076787e-6 + 
                           Power(x,2)*
                           (-9.0646997836711835175098792263e-7 + 
                           2.21227885549801306549990154396e-7*Power(x,2))))))\
)))))))))))))))}
{Log[(1 + #1)/(1 - #1)] & , 1, 0.000244837271082114499308511919458, 
 x*(1.99869348034953208568453547811 + 
     0.72012194565351749162311815453*Power(x,2))}
{Log[(1 + #1)/(1 - #1)] & , 2, 2.46320296342914798132452996028e-6, 
 x*(2.00003761630837605006396552498 + 
     Power(x,2)*(0.66367387971811341404140489565 + 
        0.457183618001805465147522034984*Power(x,2)))}
{Log[(1 + #1)/(1 - #1)] & , 3, 1.56282636081578343710669439533e-7, 
 x*(1.99999890628479267767366662921 + 
     Power(x,2)*(0.66680907820259603675618891578 + 
        Power(x,2)*(0.395112893425894593709307727949 + 
           0.345788037618088938910909973312*Power(x,2))))}
{Log[(1 + #1)/(1 - #1)] & , 4, 4.1474852669882468439537574415e-9, 
 x*(2.00000003194404066806296438624 + 
     Power(x,2)*(0.66666050603040993131591978064 + 
        Power(x,2)*(0.400327255520269965349620961636 + 
           Power(x,2)*(0.27875293930742522006201877131 + 
              0.284870694522657865424892074379*Power(x,2)))))}
{Log[(1 + #1)/(1 - #1)] & , 5, 1.11992976829697150667002916785e-10, 
 x*(1.99999999906473539585097710646 + 
     Power(x,2)*(0.66666691685445407795604519651 + 
        Power(x,2)*(0.399981105605717430010308235545 + 
           Power(x,2)*(0.286318031586339962135359858464 + 
              Power(x,2)*(0.21300949800291684867594821558 + 
                 0.246916530690470761535391184428*Power(x,2))))))}
{Log[(1 + #1)/(1 - #1)] & , 6, 3.06127577424236982445366828132e-12, 
 x*(2.00000000002742308988723236632 + 
     Power(x,2)*(0.6666666569547315666741393621 + 
        Power(x,2)*(0.400000985949073329729064782735 + 
           Power(x,2)*(0.285670565066290993666340854608 + 
              Power(x,2)*(0.223206077310594967086415788196 + 
                 Power(x,2)*(0.170171762493906587247140967385 + 
                    0.221357029524974136058141989478*Power(x,2)))))))}
{Log[(1 + #1)/(1 - #1)] & , 7, 8.44395695798874649806729024128e-14, 
 x*(1.99999999999919515662636317585 + 
     Power(x,2)*(0.66666666703109795187958365863 + 
        Power(x,2)*(0.399999952217069298017819213295 + 
           Power(x,2)*(0.285717078363361753816849439381 + 
              Power(x,2)*(0.222136378262419625583315376166 + 
                 Power(x,2)*(0.183298576726653294967277532387 + 
                    Power(x,2)*(0.139575043870978072188168050219 + 
                       0.203266356625572149766138879821*Power(x,2))))))))}
{Log[(1 + #1)/(1 - #1)] & , 8, 2.34538269073622598660009320179e-15, 
 x*(2.00000000000002363683695357635 + 
     Power(x,2)*(0.66666666665334866073082762705 + 
        Power(x,2)*(0.400000002188315138057721108226 + 
           Power(x,2)*(0.2857141232159377789966318254 + 
              Power(x,2)*(0.222228717406592838268483404019 + 
                 Power(x,2)*(0.181666855020041235084667333232 + 
                    Power(x,2)*(0.155953385261412203072674191138 + 
                       Power(x,2)*
                        (0.116235854995308475603332568461 + 
                          0.19004029407429759210845815878*Power(x,2)))))))))}
{Log[(1 + #1)/(1 - #1)] & , 9, 6.55049872715539595929854141611e-17, 
 x*(1.99999999999999930550413562706 + 
     Power(x,2)*(0.6666666666671431511287545905 + 
        Power(x,2)*(0.399999999904175264382265582891 + 
           Power(x,2)*(0.285714294509349219809755396458 + 
              Power(x,2)*(0.222221780715086585786972062007 + 
                 Power(x,2)*(0.181831427381185947495951629558 + 
                    Power(x,2)*(0.15359896933017598708632667247 + 
                       Power(x,2)*
                        (0.136212763801306087484128076492 + 
                          Power(x,2)*
                           (0.097509429292278293235956018849 + 
                           0.180173715935115504648176919454*Power(x,2))))))))\
))}
{Log[(1 + #1)/(1 - #1)] & , 10, 1.8376858229462566840694776319e-18, 
 x*(2.00000000000000002041265958451 + 
     Power(x,2)*(0.66666666666664991338928512269 + 
        Power(x,2)*(0.400000000004045956015871655565 + 
           Power(x,2)*(0.285714285265097704005444480179 + 
              Power(x,2)*(0.222222249814109238532947086348 + 
                 Power(x,2)*(0.181817151135306517458979430024 + 
                    Power(x,2)*(0.153870740006789565996421114892 + 
                       Power(x,2)*
                        (0.132951840638140612860767156829 + 
                          Power(x,2)*
                           (0.121460441279402629417029363099 + 
                           Power(x,2)*
                           (0.08185830677307776386474563748 + 
                           0.172737003710330314852428675176*Power(x,2))))))))\
)))}
{Log[(1 + #1)/(1 - #1)] & , 11, 5.17443919412421074942207802769e-20, 
 x*(1.99999999999999999939987284932 + 
     Power(x,2)*(0.66666666666666724721264553538 + 
        Power(x,2)*(0.399999999999834256255744091172 + 
           Power(x,2)*(0.285714285736159505303954301263 + 
              Power(x,2)*(0.222222220611185193265877682552 + 
                 Power(x,2)*(0.181818254895934079014386596795 + 
                    Power(x,2)*(0.153843997700555374349736922209 + 
                       Power(x,2)*
                        (0.13337585498652657985742501356 + 
                          Power(x,2)*
                           (0.117083552533038882072551722851 + 
                           Power(x,2)*
                           (0.11019008097151991159591824237 + 
                           Power(x,2)*
                           (0.06832457688430761068708308519 + 
                           0.167125778347090927097458505509*Power(x,2))))))))\
))))}
{Log[(1 + #1)/(1 - #1)] & , 12, 6.00201959152765507083845578645e-22, 
 x*(2.00000000000000000001764718524 + 
     Power(x,2)*(0.66666666666666664679571742631 + 
        Power(x,2)*(0.400000000000006618809482817992 + 
           Power(x,2)*(0.285714285713262186739678687546 + 
              Power(x,2)*(0.222222222311141976639824887371 + 
                 Power(x,2)*(0.181818177014753356143795899699 + 
                    Power(x,2)*(0.153846324918148459281159128836 + 
                       Power(x,2)*
                        (0.133329182294497146281820520349 + 
                          Power(x,2)*
                           (0.117716659516442146887948426921 + 
                           Power(x,2)*
                           (0.104459366915733761431995133732 + 
                           Power(x,2)*
                           (0.101477552180723767419441554747 + 
                           Power(x,2)*
                           (0.056277452538711395969131412102 + 
                           0.162930825436405619597095015452*Power(x,2))))))))\
)))))}
{Log[(1 + #1)/(1 - #1)] & , 13, 4.13847626324449719258576786991e-23, 
 x*(1.99999999999999999999948098753 + 
     Power(x,2)*(0.66666666666666666733964524442 + 
        Power(x,2)*(0.399999999999999741385995588681 + 
           Power(x,2)*(0.285714285714332011003209143077 + 
              Power(x,2)*(0.222222222217541657129259127169 + 
                 Power(x,2)*(0.181818182114612932050400305557 + 
                    Power(x,2)*(0.153846141341451840083217825205 + 
                       Power(x,2)*
                        (0.13333369783235995256565745357 + 
                          Power(x,2)*
                           (0.117639571011290698115034865942 + 
                           Power(x,2)*
                           (0.105372166363989028441232421528 + 
                           Power(x,2)*
                           (0.094123727718059134694550761578 + 
                           Power(x,2)*
                           (0.094728609033998579173218316682 + 
                           Power(x,2)*
                           (0.0452819835871539242437599402179 + 
                           0.159865864524633024873275225981*Power(x,2))))))))\
))))))}
{Log[(1 + #1)/(1 - #1)] & , 14, 1.17445849063414605177535114492e-24, 
 x*(2.0000000000000000000000152664 + 
     Power(x,2)*(0.66666666666666666664408322064 + 
        Power(x,2)*(0.400000000000000009915829337126 + 
           Power(x,2)*(0.285714285714283680432272720053 + 
              Power(x,2)*(0.222222222222458804441809948775 + 
                 Power(x,2)*(0.181818181800840689939732885915 + 
                    Power(x,2)*(0.153846154699581884336447969892 + 
                       Power(x,2)*
                        (0.133333303997466421258356487577 + 
                          Power(x,2)*
                           (0.117647779916047701356428015345 + 
                           Power(x,2)*
                           (0.105250341034962231004288298031 + 
                           Power(x,2)*
                           (0.095402766636738387048039564642 + 
                           Power(x,2)*
                           (0.085447651596263039206564587969 + 
                           Power(x,2)*
                           (0.08954775372597583491372314395 + 
                           Power(x,2)*
                           (0.0350260928639782639457791362212 + 
                           0.157725226134361613299983647051*Power(x,2))))))))\
)))))))}
{Log[(1 + #1)/(1 - #1)] & , 15, 3.33724934581893386882173884498e-26, 
 x*(1.9999999999999999999999995509 + 
     Power(x,2)*(0.66666666666666666666741842578 + 
        Power(x,2)*(0.399999999999999999626024551056 + 
           Power(x,2)*(0.285714285714285801391639007309 + 
              Power(x,2)*(0.222222222222210676810175351662 + 
                 Power(x,2)*(0.181818181819150692743997221564 + 
                    Power(x,2)*(0.153846153791214168881901155582 + 
                       Power(x,2)*
                        (0.133333335527674722238682938608 + 
                          Power(x,2)*
                           (0.117646995448106002495310983897 + 
                           Power(x,2)*
                           (0.105264501340763111637523909782 + 
                           Power(x,2)*
                           (0.09521708276418861863351727476 + 
                           Power(x,2)*
                           (0.08719789704609714772407704527 + 
                           Power(x,2)*
                           (0.077997279870289942276774132696 + 
                           Power(x,2)*
                           (0.085665453295335927451616650436 + 
                           Power(x,2)*
                           (0.0252777762663409318736850266496 + 
                           0.156357924396727755078629588372*Power(x,2))))))))\
))))))))}
{2^#1 & , 1, 0.0377184175144159683187524189042, 
 1.02014349907778952618207174634 + 0.70151027081131594019995960628*x}
{2^#1 & , 2, 0.00293649342975466650607705425915, 
 0.99994822387107874637502959967 + 
   (0.70151027081131594019995960628 + 0.242294838666414663282409068557*x)*x}
{2^#1 & , 3, 0.000132923511787752059413533651775, 
 0.99994822387107874637502959967 + 
   x*(0.69312725863191879513712006743 + 
      (0.242294838666414663282409068557 + 
         0.055875572375705938285128037151*x)*x)}
{2^#1 & , 4, 5.48195580462741183719588108246e-6, 
 1.00000005230745711373079206024 + 
   x*(0.69312725863191879513712006743 + 
      x*(0.240222115700585316818177639177 + 
         (0.055875572375705938285128037151 + 
            0.009670773148229417605024318985*x)*x))}
{2^#1 & , 5, 1.62772721960621336664735896836e-7, 
 1.00000005230745711373079206024 + 
   x*(0.69314720007380208630542805293 + 
      x*(0.240222115700585316818177639177 + 
         x*(0.055503406540531310853149866446 + 
            (0.009670773148229417605024318985 + 
               0.00133952915439234389712105060319*x)*x)))}
{2^#1 & , 6, 4.55549108005200277750378992345e-9, 
 0.99999999997182023878745628977 + 
   x*(0.69314720007380208630542805293 + 
      x*(0.240226511015459465468737123346 + 
         x*(0.055503406540531310853149866446 + 
            x*(0.0096180399118156827664944870552 + 
               (0.00133952915439234389712105060319 + 
                  0.000154653240842602623787395880898*x)*x))))}
{2^#1 & , 7, 1.0066706365241891678796521586e-10, 
 0.99999999997182023878745628977 + 
   x*(0.69314718054960753437769627995 + 
      x*(0.240226511015459465468737123346 + 
         x*(0.055504109271087472392919166206 + 
            x*(0.0096180399118156827664944870552 + 
               x*(0.00133334636127342325958942040074 + 
                  (0.000154653240842602623787395880897 + 
                     0.0000153067138296998774404668659859*x)*x)))))}
{2^#1 & , 8, 2.0543495982853983974992292183e-12, 
 1.00000000000000942892870993489 + 
   x*(0.69314718054960753437769627995 + 
      x*(0.240226506957026959772247598695 + 
         x*(0.055504109271087472392919166206 + 
            x*(0.0096181291794939392517233403183 + 
               x*(0.00133334636127342325958942040074 + 
                  x*(0.000154034441925859828261898614555 + 
                     (0.0000153067138296998774404668659859 + 
                        1.32573274434801314145133004072e-6*x)*x))))))}
{2^#1 & , 9, 3.74939899823302048807873981077e-14, 
 1.00000000000000942892870993489 + 
   x*(0.6931471805599487321347668143 + 
      x*(0.240226506957026959772247598695 + 
         x*(0.055504108664525029438908798685 + 
            x*(0.0096181291794939392517233403183 + 
               x*(0.00133335582175770747495287552557 + 
                  x*(0.000154034441925859828261898614555 + 
                     x*(0.0000152526647170731944840736190013 + 
                        (1.32573274434801314145133004073e-6 + 
                           1.02072375599725694063203809188e-7*x)*x)))))))}
{2^#1 & , 10, 6.37823141914794968929903993288e-16, 
 0.9999999999999999978508676375 + 
   x*(0.6931471805599487321347668143 + 
      x*(0.240226506959101382690753994082 + 
         x*(0.055504108664525029438908798685 + 
            x*(0.0096181291075949686712855561931 + 
               x*(0.00133335582175770747495287552557 + 
                  x*(0.000154035304541242555115696403795 + 
                     x*(0.0000152526647170731944840736190013 + 
                        x*(1.3215437348041505269462510712e-6 + 
                           (1.02072375599725694063203809187e-7 + 
                           7.0733589360775271430968224805e-9*x)*x))))))))}
{2^#1 & , 11, 9.32016781355638010975628074746e-18, 
 0.9999999999999999978508676375 + 
   x*(0.69314718055994530864272481773 + 
      x*(0.240226506959101382690753994082 + 
         x*(0.055504108664821672870565883052 + 
            x*(0.0096181291075949686712855561931 + 
               x*(0.00133335581463968601407096905671 + 
                  x*(0.000154035304541242555115696403795 + 
                     x*(0.000015252733849766201174247690629 + 
                        x*(1.3215437348041505269462510712e-6 + 
                           x*(1.01780540270960163558119510246e-7 + 
                           (7.0733589360775271430968224806e-9 + 
                           4.45623165388261696886670014471e-10*x)*x)))))))))}
{2^#1 & , 12, 1.29229754730336675495500745254e-19, 
 1.00000000000000000000035509493 + 
   x*(0.69314718055994530864272481773 + 
      x*(0.240226506959100712184446627847 + 
         x*(0.055504108664821672870565883052 + 
            x*(0.0096181291076284872985736369568 + 
               x*(0.00133335581463968601407096905671 + 
                  x*(0.000154035303933559374721812447645 + 
                     x*(0.000015252733849766201174247690629 + 
                        x*(1.32154868209419583572343165046e-6 + 
                           x*(1.01780540270960163558119510246e-7 + 
                           x*(7.0548927386006783617129423284e-9 + 
                           (4.4562316538826169688667001447e-10 + 
                           2.57356236340873194217478144868e-11*x)*x))))))))))}
{2^#1 & , 13, 1.6974004095808974445704617954e-21, 
 1.00000000000000000000035509493 + 
   x*(0.69314718055994530941735941669 + 
      x*(0.240226506959100712184446627847 + 
         x*(0.055504108664821579932949475479 + 
            x*(0.0096181291076284872985736369568 + 
               x*(0.00133335581464284526290646782245 + 
                  x*(0.000154035303933559374721812447645 + 
                     x*(0.000015252733804041433831834262079 + 
                        x*(1.32154868209419583572343165046e-6 + 
                           x*(1.01780860280496092185366713315e-7 + 
                           x*(7.0548927386006783617129423284e-9 + 
                           x*(4.44552801562037361520653580002e-10 + 
                           (2.57356236340873194217478144867e-11 + 
                           1.37198759513854499582134889239e-12*x)*x))))))))))\
)}
{2^#1 & , 14, 2.02451279368723884107808599599e-23, 
 0.99999999999999999999999995552 + 
   x*(0.69314718055994530941735941669 + 
      x*(0.240226506959100712333575453945 + 
         x*(0.055504108664821579932949475479 + 
            x*(0.0096181291076284771598346523242 + 
               x*(0.00133335581464284526290646782245 + 
                  x*(0.000154035303933816171579389404698 + 
                     x*(0.000015252733804041433831834262079 + 
                        x*(1.32154867901324782382572662554e-6 + 
                           x*(1.01780860280496092185366713315e-7 + 
                           x*(7.0549116313147391016751350618e-9 + 
                           x*(4.44552801562037361520653580002e-10 + 
                           x*(2.56783843992965105996807919793e-11 + 
                           (1.37198759513854499582134889239e-12 + 
                           6.7918734306848200658229994319e-14*x)*x)))))))))))\
)}
{2^#1 & , 15, 2.25807007751383968571633423764e-25, 
 0.99999999999999999999999995552 + 
   x*(0.69314718055994530941723210558 + 
      x*(0.240226506959100712333575453945 + 
         x*(0.055504108664821579953145481531 + 
            x*(0.0096181291076284771598346523242 + 
               x*(0.0013333558146428443421520612366 + 
                  x*(0.000154035303933816171579389404698 + 
                     x*(0.0000152527338040598452510638160511 + 
                        x*(1.32154867901324782382572662554e-6 + 
                           x*(1.01780860092327972764393473468e-7 + 
                           x*(7.0549116313147391016751350618e-9 + 
                           x*(4.44553827729082893290169056733e-10 + 
                           x*(2.56783843992965105996807919793e-11 + 
                           x*(1.36914646805580089790003895503e-12 + 
                           (6.7918734306848200658229994319e-14 + 
                           3.13814345235806731834860373313e-15*x)*x))))))))))\
)))}
{ArcTan, 1, 0.00921311381602464272219697387117, 
 x*(0.97621210720386414721803256511 - 
     0.200027057622440480324568693165*Power(x,2))}
{ArcTan, 2, 0.00132330885130961377048163399509, 
 x*(0.99598173486999338306175718272 + 
     Power(x,2)*(-0.29227609592953424772501466126 + 
        0.083015833308298788049399958352*Power(x,2)))}
{ArcTan, 3, 0.000199082059605513491962875975987, 
 x*(0.99931646424712885129173937014 + 
     Power(x,2)*(-0.322285660267816692281966547637 + 
        Power(x,2)*(0.149030275169137392237355785703 - 
           0.0408619978106067551234306383615*Power(x,2))))}
{ArcTan, 4, 0.0000307680037697410926894310608841, 
 x*(0.99988335679432384476136352764 + 
     Power(x,2)*(-0.3305992534190930809924520881 + 
        Power(x,2)*(0.181450048265282379901746109959 + 
           Power(x,2)*(-0.087171330836399434650963135714 + 
              0.0218661105971043416886558630964*Power(x,2)))))}
{ArcTan, 5, 4.8395528200368869483718571036e-6, 
 x*(0.99998006137119112591722888198 + 
     Power(x,2)*(-0.33269430994114513203262415607 + 
        Power(x,2)*(0.194019131620715561536476044829 + 
           Power(x,2)*(-0.117693198015807483767227150963 + 
              Power(x,2)*(0.054080418318580054660281700719 - 
                 0.012298779508905853585422846529*Power(x,2))))))}
{ArcTan, 6, 7.70694363690764128090802825926e-7, 
 x*(0.99999658828934854603571553586 + 
     Power(x,2)*(-0.33319006797700537398897857126 + 
        Power(x,2)*(0.198232654128172570208919144223 + 
           Power(x,2)*(-0.132940613829800421422309574443 + 
              Power(x,2)*(0.080760731297502897187721691167 + 
                 Power(x,2)*(-0.0346109945849883205090458542272 + 
                    0.0071506367685821028677665653061*Power(x,2)))))))}
{ArcTan, 7, 1.23860786084353054585555009644e-7, 
 x*(0.999999415837493616818202461 + 
     Power(x,2)*(-0.333302216192503032173611135902 + 
        Power(x,2)*(0.199511016178793313363725232648 + 
           Power(x,2)*(-0.139331786095017077832738529859 + 
              Power(x,2)*(0.097092096781194366486646092256 + 
                 Power(x,2)*(-0.056878815430610483157687426436 + 
                    Power(x,2)*(0.0225652815360960193999778971552 - 
                       0.00425695307878449764190833059469*Power(x,2))))))))}
{ArcTan, 8, 2.00465303168561778021644658839e-8, 
 x*(0.99999989993333651556690460038 + 
     Power(x,2)*(-0.333326741268548635313303047771 + 
        Power(x,2)*(0.199871498833128987967909387534 + 
           Power(x,2)*(-0.141700435793102517931647332383 + 
              Power(x,2)*(0.105315754411902726526763479987 + 
                 Power(x,2)*(-0.073025477563893938782407705282 + 
                    Power(x,2)*(0.0405732232677777271829232007348 + 
                       Power(x,2)*
                        (-0.0148891530126704514255680823561 + 
                          0.00257961463604821268026414713864*Power(x,2)))))))\
))}
{ArcTan, 9, 3.26256255516310381152399406173e-9, 
 x*(0.99999998285317844271948351483 + 
     Power(x,2)*(-0.333331964697814467100831237473 + 
        Power(x,2)*(0.199967600349984528223495106291 + 
           Power(x,2)*(-0.142501201925224699890321197817 + 
              Power(x,2)*(0.108918842742727855058005014287 + 
                 Power(x,2)*(-0.082523581530835072765757347174 + 
                    Power(x,2)*(0.055671267638154001650728176173 + 
                       Power(x,2)*
                        (-0.0291230325887942240704799284593 + 
                          Power(x,2)*
                           (0.0099051456566235156197479166172 - 
                           0.00158489836311412499151298297798*Power(x,2))))))\
))))}
{ArcTan, 10, 5.33372449472534148972181336033e-10, 
 x*(0.99999999706113254923481155688 + 
     Power(x,2)*(-0.333333053865780428311012473829 + 
        Power(x,2)*(0.199992104187780592213809391657 + 
           Power(x,2)*(-0.142753216289425779134659952252 + 
              Power(x,2)*(0.110339782156193698995864271094 + 
                 Power(x,2)*(-0.087328461492638435564849053457 + 
                    Power(x,2)*(0.065834424047250697654979780187 + 
                       Power(x,2)*
                        (-0.0426725575691345277864356435964 + 
                          Power(x,2)*
                           (0.0209628471787540833528181169338 + 
                           Power(x,2)*
                           (-0.0066282596026883020451961282862 + 
                           0.00098455811937661047806512945733*Power(x,2))))))\
)))))}
{ArcTan, 11, 8.75204523591837985749946268757e-11, 
 x*(0.99999999949620496260001323959 + 
     Power(x,2)*(-0.333333277058531347192344071299 + 
        Power(x,2)*(0.199998129792146768389464747466 + 
           Power(x,2)*(-0.142828098488176420692694149142 + 
              Power(x,2)*(0.11085558594632380541439420818 + 
                 Power(x,2)*(-0.089494621726799057245299760571 + 
                    Power(x,2)*(0.071665813258094689532471519478 + 
                       Power(x,2)*
                        (-0.052945887005220730539516982582 + 
                          Power(x,2)*
                           (0.0327457870112950253469324158718 + 
                           Power(x,2)*
                           (-0.0151028636238087564539143692519 + 
                           Power(x,2)*
                           (0.00445476465630045070608694184574 - 
                           0.00061716894790153260911669233531*Power(x,2))))))\
))))))}
{ArcTan, 12, 1.4405608267461041105472249894e-11, 
 x*(0.99999999991362501818686386342 + 
     Power(x,2)*(-0.333333322135413332523332515126 + 
        Power(x,2)*(0.199999567601651358992080646433 + 
           Power(x,2)*(-0.14284932118388203370549933512 + 
              Power(x,2)*(0.111030655769092030908248061788 + 
                 Power(x,2)*(-0.090385797617561806226244571208 + 
                    Power(x,2)*(0.074624679846440203253551808763 + 
                       Power(x,2)*
                        (-0.05953927653634410779233779689 + 
                          Power(x,2)*
                           (0.042683363342081778782711514039 + 
                           Power(x,2)*
                           (-0.025097559948127001007419862818 + 
                           Power(x,2)*
                           (0.010879287307592916331350613931 + 
                           Power(x,2)*
                           (-0.00300390824303121791185421194038 + 
                           0.00038979529573011059500367164832*Power(x,2))))))\
)))))))}
{ArcTan, 13, 2.37733224117343103676373320336e-12, 
 x*(0.99999999998518949985362238701 + 
     Power(x,2)*(-0.333333331127789474136847214104 + 
        Power(x,2)*(0.199999902084799588135925015369 + 
           Power(x,2)*(-0.142855102389403130083823640979 + 
              Power(x,2)*(0.111086856347737136293150365231 + 
                 Power(x,2)*(-0.090726032756208812578142226466 + 
                    Power(x,2)*(0.075985485132610783203515923224 + 
                       Power(x,2)*
                        (-0.063258441275886539638534711249 + 
                          Power(x,2)*
                           (0.0497381363132497788100363241224 + 
                           Power(x,2)*
                           (-0.0343792332418402737639845073963 + 
                           Power(x,2)*
                           (0.019187768827119883145899841971 + 
                           Power(x,2)*
                           (-0.0078308859872495228509341824727 + 
                           Power(x,2)*
                           (0.00203080457434280992836876839375 - 
                           0.000247763091600748943764727868781*Power(x,2)))))\
)))))))))}
{ArcTan, 14, 3.93205341080839956315498105299e-13, 
 x*(0.99999999999746025643131380157 + 
     Power(x,2)*(-0.333333332902782683929236355751 + 
        Power(x,2)*(0.199999978224448012675609732364 + 
           Power(x,2)*(-0.142856625031176046241614297285 + 
              Power(x,2)*(0.111104068949654417892574546958 + 
                 Power(x,2)*(-0.090848073632370177315605615981 + 
                    Power(x,2)*(0.076562775024834628760135701179 + 
                       Power(x,2)*
                        (-0.06514956511239395360899219405 + 
                          Power(x,2)*
                           (0.054117877872909183448693700867 + 
                           Power(x,2)*
                           (-0.0416012476592751717702444421784 + 
                           Power(x,2)*
                           (0.0276126155454625795184994988698 + 
                           Power(x,2)*
                           (-0.0146233683625773371035668657524 + 
                           Power(x,2)*
                           (0.0056304626857132872300798592326 + 
                           Power(x,2)*
                           (-0.00137574903064979464628617359628 + 
                           0.000158346828584313615380789329004*Power(x,2)))))\
))))))))))}
{ArcTan, 15, 1.28466131094986756249594470632e-14, 
 x*(0.99999999999956444663290523394 + 
     Power(x,2)*(-0.333333333249939632750804270654 + 
        Power(x,2)*(0.199999995233451327965188449899 + 
           Power(x,2)*(-0.142857014579705367777919927722 + 
              Power(x,2)*(0.111109132578224460956226945784 + 
                 Power(x,2)*(-0.090889591267963359760513398764 + 
                    Power(x,2)*(0.076791631593915790749196426345 + 
                       Power(x,2)*
                        (-0.066032210026074324946052088718 + 
                          Power(x,2)*
                           (0.056557889376502642898942276851 + 
                           Power(x,2)*
                           (-0.04649505419318384045028596043 + 
                           Power(x,2)*
                           (0.0347428833165395509478628590747 + 
                           Power(x,2)*
                           (-0.0220910896814078733669641665831 + 
                           Power(x,2)*
                           (0.0111062483097541108317687854261 + 
                           Power(x,2)*
                           (-0.00404317477463200409700423095944 + 
                           Power(x,2)*
                           (0.00093353157397102582694105766684 - 
                           0.000101680811633804854073182172201*Power(x,2)))))\
)))))))))))}
{ArcTan, 16, 4.51099219012979651191053905426e-15, 
 x*(0.99999999999992530030538469031 + 
     Power(x,2)*(-0.333333333317292311543774688644 + 
        Power(x,2)*(0.199999998971154651330991357663 + 
           Power(x,2)*(-0.142857111750363314609390868012 + 
              Power(x,2)*(0.111110571101253681650632758757 + 
                 Power(x,2)*(-0.090903085892226537865609270845 + 
                    Power(x,2)*(0.076877262069764087663757891342 + 
                       Power(x,2)*
                        (-0.066415470364869197542821983068 + 
                          Power(x,2)*
                           (0.057800544233774096112661850786 + 
                           Power(x,2)*
                           (-0.0494596912610027349310685572318 + 
                           Power(x,2)*
                           (0.0399798897555204988285982455323 + 
                           Power(x,2)*
                           (-0.0289212906711427196938020360222 + 
                           Power(x,2)*
                           (0.0175942961666641793521565023974 + 
                           Power(x,2)*
                           (-0.0084050765880235290194340483417 + 
                           Power(x,2)*
                           (0.00289941560224686252556485604503 + 
                           Power(x,2)*
                           (-0.00063431916822361811805242499051 + 
                           0.000065564510299731531814342170655*Power(x,2)))))\
))))))))))))}
{ArcTan, 17, 7.52329105519039189487157159691e-16, 
 x*(0.99999999999998718796906969685 + 
     Power(x,2)*(-0.333333333330266807656469026167 + 
        Power(x,2)*(0.199999999780683089901670942687 + 
           Power(x,2)*(-0.1428571354556356878332011786 + 
              Power(x,2)*(0.11111096746685528075017883072 + 
                 Power(x,2)*(-0.090907301363651597052212625233 + 
                    Power(x,2)*(0.076907740154021464874673906049 + 
                       Power(x,2)*
                        (-0.066571909045412158345333822159 + 
                          Power(x,2)*
                           (0.058387131219683849737801183553 + 
                           Power(x,2)*
                           (-0.051095798258344842612702683322 + 
                           Power(x,2)*
                           (0.0434075841346121875262235493608 + 
                           Power(x,2)*
                           (-0.0343264870094048246619856502306 + 
                           Power(x,2)*
                           (0.023971796453306581950040632064 + 
                           Power(x,2)*
                           (-0.0139462305062316044432581283926 + 
                           Power(x,2)*
                           (0.0063384120226462742465542073288 + 
                           Power(x,2)*
                           (-0.00207633617879867333575656263399 + 
                           Power(x,2)*
                           (0.000431494715472833167649588070832 - 
                           0.0000424314020760426606230821560672*Power(x,2))))\
))))))))))))))}
{ArcTan, 18, 5.50688143535357965682947661877e-17, 
 x*(0.99999999999999780246672418262 + 
     Power(x,2)*(-0.333333333332750354621997182123 + 
        Power(x,2)*(0.199999999953769204165250956902 + 
           Power(x,2)*(-0.142857141125705984358403410507 + 
              Power(x,2)*(0.111111073770164751474940145102 + 
                 Power(x,2)*(-0.090908573012077604542022073141 + 
                    Power(x,2)*(0.076918124256246588808538101206 + 
                       Power(x,2)*
                        (-0.066632427543805378346304132384 + 
                          Power(x,2)*
                           (0.058646534135974053123412526184 + 
                           Power(x,2)*
                           (-0.051930052639674247117870712159 + 
                           Power(x,2)*
                           (0.0454453469256683423138144738738 + 
                           Power(x,2)*
                           (-0.0381277871811071042336238999982 + 
                           Power(x,2)*
                           (0.0293817787508479320522326592478 + 
                           Power(x,2)*
                           (-0.0197717892291322068578788999805 + 
                           Power(x,2)*
                           (0.0110012676333508443330981729875 + 
                           Power(x,2)*
                           (-0.00476347969849828003626275336992 + 
                           Power(x,2)*
                           (0.00148487294447643817530954519366 + 
                           Power(x,2)*
                           (-0.000293801010194754364715947218705 + 
                           0.0000275497998985664786619880637872*Power(x,2))))\
)))))))))))))))}
{ArcTan, 19, 4.9875522828359315425191935255e-17, 
 x*(0.99999999999999962306318379001 + 
     Power(x,2)*(-0.333333333333223056172609454712 + 
        Power(x,2)*(0.199999999990352692670095294814 + 
           Power(x,2)*(-0.142857142458258654764908889817 + 
              Power(x,2)*(0.111111101602961590076177677447 + 
                 Power(x,2)*(-0.090908944922734894577206055489 + 
                    Power(x,2)*(0.076921528333091412709227118507 + 
                       Power(x,2)*
                        (-0.066654762566583304544619579864 + 
                          Power(x,2)*
                           (0.058754913986291551157222061787 + 
                           Power(x,2)*
                           (-0.052327406188258423481367048019 + 
                           Power(x,2)*
                           (0.0465616109541441871180968427215 + 
                           Power(x,2)*
                           (-0.0405497968289487036913825822875 + 
                           Power(x,2)*
                           (0.0334503531749565549465631607855 + 
                           Power(x,2)*
                           (-0.0250453463887030466705553158907 + 
                           Power(x,2)*
                           (0.0162223529316670665778332319722 + 
                           Power(x,2)*
                           (-0.0086368056040220365750136104109 + 
                           Power(x,2)*
                           (0.00356804703995416253529180079166 + 
                           Power(x,2)*
                           (-0.0010604733986056402712018086424 + 
                           Power(x,2)*
                           (0.000200206707396647533638578888512 - 
                           0.0000179396340294678983271951318761*Power(x,2))))\
))))))))))))))))}
{ArcTan, 20, 8.31975729708419926065631652499e-18, 
 x*(0.99999999999999993534307233808 + 
     Power(x,2)*(-0.333333333333312567583168122798 + 
        Power(x,2)*(0.19999999999800516385617242916 + 
           Power(x,2)*(-0.142857142766513532299974550357 + 
              Power(x,2)*(0.111111108734933799815923636358 + 
                 Power(x,2)*(-0.090909050724836514467527088952 + 
                    Power(x,2)*(0.076922606594351156909619960441 + 
                       Power(x,2)*
                        (-0.066662669036232571580632776684 + 
                          Power(x,2)*
                           (0.058797988371381171895649736349 + 
                           Power(x,2)*
                           (-0.052505731672020028467102870417 + 
                           Power(x,2)*
                           (0.0471313471507344243961428461509 + 
                           Power(x,2)*
                           (-0.0419683676241467967850889262038 + 
                           Power(x,2)*
                           (0.0362162934539417311043544409362 + 
                           Power(x,2)*
                           (-0.0292687019254728848452933539132 + 
                           Power(x,2)*
                           (0.0212461942159708941183934351944 + 
                           Power(x,2)*
                           (-0.0132388385684578495149009149816 + 
                           Power(x,2)*
                           (0.0067490628980303151410699313455 + 
                           Power(x,2)*
                           (-0.00266418875846826394398310205928 + 
                           Power(x,2)*
                           (0.00075639546182527121158073139621 + 
                           Power(x,2)*
                           (-0.000136521490525732293404846127036 + 
                           0.0000117124182611959245152099875224*Power(x,2))))\
)))))))))))))))))}
{ArcTan, 21, 1.38907009833023522553132771987e-18, 
 x*(0.99999999999999998890893723519 + 
     Power(x,2)*(-0.333333333333329439169777033987 + 
        Power(x,2)*(0.199999999999590936889124493064 + 
           Power(x,2)*(-0.142857142836809216407081514304 + 
              Power(x,2)*(0.111111110527297286921890583715 + 
                 Power(x,2)*(-0.090909080084118765918243804078 + 
                    Power(x,2)*(0.076922937794670345589568962234 + 
                       Power(x,2)*
                        (-0.066665365687605936348410945115 + 
                          Power(x,2)*
                           (0.058814364950323097822390627588 + 
                           Power(x,2)*
                           (-0.052581669382435104224417607961 + 
                           Power(x,2)*
                           (0.047404695991652568247168698843 + 
                           Power(x,2)*
                           (-0.0427407991543758113560312097495 + 
                           Power(x,2)*
                           (0.0379412206735660371171842371393 + 
                           Power(x,2)*
                           (-0.0323201957269398693931223193226 + 
                           Power(x,2)*
                           (0.0255148587491812959493281661174 + 
                           Power(x,2)*
                           (-0.0179293176449041605668760907297 + 
                           Power(x,2)*
                           (0.0107462366123034787598211744684 + 
                           Power(x,2)*
                           (-0.0052503405615402246608680369861 + 
                           Power(x,2)*
                           (0.00198333763015592776734473966334 + 
                           Power(x,2)*
                           (-0.00053883941550860097593892225743 + 
                           Power(x,2)*
                           (0.000093149244715046016740966956769 - 
                           7.6649484405727421416529998789e-6*Power(x,2)))))))\
)))))))))))))))}
{ArcTan, 22, 3.97146294086538913345769340957e-20, 
 x*(0.99999999999999999809742691936 + 
     Power(x,2)*(-0.333333333333332605824633485438 + 
        Power(x,2)*(0.199999999999916753647807070691 + 
           Power(x,2)*(-0.142857142852633046378123028525 + 
              Power(x,2)*(0.111111110969881468667367616621 + 
                 Power(x,2)*(-0.090909088049850968754645113032 + 
                    Power(x,2)*(0.076923036743846755181779872906 + 
                       Power(x,2)*
                        (-0.066666255200371334217814802431 + 
                          Power(x,2)*
                           (0.058820348951569363788180573327 + 
                           Power(x,2)*
                           (-0.052612531196696791157770948322 + 
                           Power(x,2)*
                           (0.0475288658452558097504517952461 + 
                           Power(x,2)*
                           (-0.0431353554676527166599097242113 + 
                           Power(x,2)*
                           (0.0389393500020992498447119359992 + 
                           Power(x,2)*
                           (-0.03433900525818371673968797805 + 
                           Power(x,2)*
                           (0.0287814288178894346156452575831 + 
                           Power(x,2)*
                           (-0.022143832318877966419531804259 + 
                           Power(x,2)*
                           (0.0150481306213265242534863867041 + 
                           Power(x,2)*
                           (-0.0086770586213817833562852511889 + 
                           Power(x,2)*
                           (0.0040669477476553436992351155953 + 
                           Power(x,2)*
                           (-0.00147229492201654282985237394526 + 
                           Power(x,2)*
                           (0.000383402592259426301903774989633 + 
                           Power(x,2)*
                           (-0.000063588664365854997996491954809 + 
                           5.0269911115093360214179449431e-6*Power(x,2)))))))\
))))))))))))))))}
{ArcTan, 23, 3.87841098767334339904728907787e-20, 
 x*(0.99999999999999999967362389368 + 
     Power(x,2)*(-0.333333333333333197891193622863 + 
        Power(x,2)*(0.199999999999983176997091909312 + 
           Power(x,2)*(-0.142857142856153138417971149263 + 
              Power(x,2)*(0.111111111077429281132511204804 + 
                 Power(x,2)*(-0.090909090167357334472056211482 + 
                    Power(x,2)*(0.076923065571680812677548221288 + 
                       Power(x,2)*
                        (-0.066666539881608246568855580383 + 
                          Power(x,2)*
                           (0.058822458734817996470802297544 + 
                           Power(x,2)*
                           (-0.052624559481856004507942010985 + 
                           Power(x,2)*
                           (0.047582586912035418238771765692 + 
                           Power(x,2)*
                           (-0.0433258023719507591229821969349 + 
                           Power(x,2)*
                           (0.0394801661167839501065651945505 + 
                           Power(x,2)*
                           (-0.0355761354824894965810332915225 + 
                           Power(x,2)*
                           (0.0310665435504708383732919891815 + 
                           Power(x,2)*
                           (-0.0255490560692352351069883471988 + 
                           Power(x,2)*
                           (0.019123680098774317026830608039 + 
                           Power(x,2)*
                           (-0.0125604362277512784721262904784 + 
                           Power(x,2)*
                           (0.0069704495030109624372688008483 + 
                           Power(x,2)*
                           (-0.0031374326883301868044989317889 + 
                           Power(x,2)*
                           (0.00109000142728630720467572020908 + 
                           Power(x,2)*
                           (-0.000272496043782363933609668108198 + 
                           Power(x,2)*
                           (0.0000434284148533518592168462310596 - 
                           3.30340583086074209177523153861e-6*Power(x,2))))))\
))))))))))))))))))}
{ArcTan, 24, 6.49402328379698980769836262454e-21, 
 x*(0.99999999999999999994401094633 + 
     Power(x,2)*(-0.333333333333333308198303809775 + 
        Power(x,2)*(0.199999999999996622116498786607 + 
           Power(x,2)*(-0.142857142856927757495166976027 + 
              Power(x,2)*(0.111111111103182841997078991543 + 
                 Power(x,2)*(-0.090909090719834140600059425127 + 
                    Power(x,2)*(0.076923073780115154024450217465 + 
                       Power(x,2)*
                        (-0.066666628524012656533901211759 + 
                          Power(x,2)*
                           (0.058823178883780719969407930715 + 
                           Power(x,2)*
                           (-0.052629073657519795321986744467 + 
                           Power(x,2)*
                           (0.0476048331690000609927005435604 + 
                           Power(x,2)*
                           (-0.0434131960968814201644339159653 + 
                           Power(x,2)*
                           (0.0397565945068847703205323779544 + 
                           Power(x,2)*
                           (-0.0362848567613049398139225745187 + 
                           Power(x,2)*
                           (0.0325449378609121224726402912564 + 
                           Power(x,2)*
                           (-0.0280604905516902303469481295638 + 
                           Power(x,2)*
                           (0.0225908321600518407126585619214 + 
                           Power(x,2)*
                           (-0.0164292821302291880485377895821 + 
                           Power(x,2)*
                           (0.0104265120701361098448465061403 + 
                           Power(x,2)*
                           (-0.0055718292019734861256064594024 + 
                           Power(x,2)*
                           (0.00241097734661634717655566555627 + 
                           Power(x,2)*
                           (-0.00080493026034806129259168418613 + 
                           Power(x,2)*
                           (0.000193463347587584806016736912268 + 
                           Power(x,2)*
                           (-0.0000296714377239390026052720886165 + 
                           2.17470096305818882130560119143e-6*Power(x,2))))))\
)))))))))))))))))))}
{ArcTan, 25, 1.08565948151308148328179906043e-21, 
 x*(0.99999999999999999999039505783 + 
     Power(x,2)*(-0.333333333333333328682616230011 + 
        Power(x,2)*(0.199999999999999325781293999103 + 
           Power(x,2)*(-0.142857142857096526918128460087 + 
              Power(x,2)*(0.111111111109267322141860223893 + 
                 Power(x,2)*(-0.090909090861533353562913623883 + 
                    Power(x,2)*(0.076923076068878546888215630607 + 
                       Power(x,2)*
                        (-0.066666655441596460233580422519 + 
                          Power(x,2)*
                           (0.058823417556064362427822053839 + 
                           Power(x,2)*
                           (-0.052630710705483777736248311947 + 
                           Power(x,2)*
                           (0.0476136879526199048246277546226 + 
                           Power(x,2)*
                           (-0.0434515164111315574701230048943 + 
                           Power(x,2)*
                           (0.0398907024852469040748721214163 + 
                           Power(x,2)*
                           (-0.0366672754295190407557113559237 + 
                           Power(x,2)*
                           (0.0334377886669482784615687667307 + 
                           Power(x,2)*
                           (-0.0297711405105498540363530253078 + 
                           Power(x,2)*
                           (0.0252796589390357712958368823141 + 
                           Power(x,2)*
                           (-0.0198860068581865033883794970306 + 
                           Power(x,2)*
                           (0.0140385916305788644721990443302 + 
                           Power(x,2)*
                           (-0.0086084086308669316256709991599 + 
                           Power(x,2)*
                           (0.00443269700394457928943597669975 + 
                           Power(x,2)*
                           (-0.00184591324969269083271126603612 + 
                           Power(x,2)*
                           (0.00059299347131447975093492390417 + 
                           Power(x,2)*
                           (-0.000137212499073856056294964555166 + 
                           Power(x,2)*
                           (0.0000202793320155751660477900857094 - 
                           1.43403040172365180544207772275e-6*Power(x,2))))))\
))))))))))))))))))))}
